<define-tag pagetitle>DLA-3237-1 node-tar</define-tag>
<define-tag report_date>2022-12-12</define-tag>
<define-tag secrefs>CVE-2021-37701 CVE-2021-37712 Bug#993981</define-tag>
<define-tag packages>node-tar</define-tag>
<define-tag isvulnerable>yes</define-tag>
<define-tag fixed>yes</define-tag>
<define-tag fixed-section>no</define-tag>

#use wml::debian::security

