<define-tag pagetitle>DSA-4955-1 libspf2</define-tag>
<define-tag report_date>2021-8-11</define-tag>
<define-tag secrefs>CVE-2021-20314</define-tag>
<define-tag packages>libspf2</define-tag>
<define-tag isvulnerable>yes</define-tag>
<define-tag fixed>yes</define-tag>
<define-tag fixed-section>no</define-tag>

#use wml::debian::security



</dl>
