<define-tag pagetitle>DSA-4994-1 bind9</define-tag>
<define-tag report_date>2021-10-28</define-tag>
<define-tag secrefs>CVE-2021-25219</define-tag>
<define-tag packages>bind9</define-tag>
<define-tag isvulnerable>yes</define-tag>
<define-tag fixed>yes</define-tag>
<define-tag fixed-section>no</define-tag>

#use wml::debian::security



</dl>
