<define-tag pagetitle>DSA-4915-1 postgresql-11</define-tag>
<define-tag report_date>2021-5-13</define-tag>
<define-tag secrefs>CVE-2021-32027 CVE-2021-32028 CVE-2021-32029</define-tag>
<define-tag packages>postgresql-11</define-tag>
<define-tag isvulnerable>yes</define-tag>
<define-tag fixed>yes</define-tag>
<define-tag fixed-section>no</define-tag>

#use wml::debian::security



</dl>
