<define-tag pagetitle>DLA-2785-1 linux-4.19</define-tag>
<define-tag report_date>2021-10-15</define-tag>
<define-tag secrefs>CVE-2020-3702 CVE-2020-16119 CVE-2021-3444 CVE-2021-3600 CVE-2021-3612 CVE-2021-3653 CVE-2021-3655 CVE-2021-3656 CVE-2021-3679 CVE-2021-3732 CVE-2021-3743 CVE-2021-3753 CVE-2021-22543 CVE-2021-33624 CVE-2021-34556 CVE-2021-35039 CVE-2021-35477 CVE-2021-37159 CVE-2021-38160 CVE-2021-38198 CVE-2021-38199 CVE-2021-38205 CVE-2021-40490</define-tag>
<define-tag packages>linux-4.19</define-tag>
<define-tag isvulnerable>yes</define-tag>
<define-tag fixed>yes</define-tag>
<define-tag fixed-section>no</define-tag>

#use wml::debian::security

