<define-tag pagetitle>DLA-2608-1 jquery</define-tag>
<define-tag report_date>2021-03-25</define-tag>
<define-tag secrefs>CVE-2020-11022 CVE-2020-11023</define-tag>
<define-tag packages>jquery</define-tag>
<define-tag isvulnerable>yes</define-tag>
<define-tag fixed>yes</define-tag>
<define-tag fixed-section>no</define-tag>

#use wml::debian::security

