<define-tag pagetitle>DSA-5362-1 frr</define-tag>
<define-tag report_date>2023-2-24</define-tag>
<define-tag secrefs>CVE-2022-37032 Bug#1021016</define-tag>
<define-tag packages>frr</define-tag>
<define-tag isvulnerable>yes</define-tag>
<define-tag fixed>yes</define-tag>
<define-tag fixed-section>no</define-tag>

#use wml::debian::security



</dl>
