<define-tag pagetitle>DSA-5388-1 haproxy</define-tag>
<define-tag report_date>2023-4-13</define-tag>
<define-tag secrefs>CVE-2023-0836</define-tag>
<define-tag packages>haproxy</define-tag>
<define-tag isvulnerable>yes</define-tag>
<define-tag fixed>yes</define-tag>
<define-tag fixed-section>no</define-tag>

#use wml::debian::security



</dl>
