<define-tag pagetitle>DLA-3267-1 libxstream-java</define-tag>
<define-tag report_date>2023-1-11</define-tag>
<define-tag secrefs>CVE-2022-41966 Bug#1027754</define-tag>
<define-tag packages>libxstream-java</define-tag>
<define-tag isvulnerable>yes</define-tag>
<define-tag fixed>yes</define-tag>
<define-tag fixed-section>no</define-tag>

#use wml::debian::security

