<define-tag pagetitle>DLA-3361-1 redis</define-tag>
<define-tag report_date>2023-03-13</define-tag>
<define-tag secrefs>CVE-2022-36021</define-tag>
<define-tag packages>redis</define-tag>
<define-tag isvulnerable>yes</define-tag>
<define-tag fixed>yes</define-tag>
<define-tag fixed-section>no</define-tag>

#use wml::debian::security
