<define-tag pagetitle>DLA-3375-1 xrdp</define-tag>
<define-tag report_date>2023-03-31</define-tag>
<define-tag secrefs>CVE-2022-23480 CVE-2022-23481 CVE-2022-23482</define-tag>
<define-tag packages>xrdp</define-tag>
<define-tag isvulnerable>yes</define-tag>
<define-tag fixed>yes</define-tag>
<define-tag fixed-section>no</define-tag>

#use wml::debian::security
