<define-tag pagetitle>DLA-2097-1 ppp</define-tag>
<define-tag report_date>2020-2-9</define-tag>
<define-tag secrefs>CVE-2020-8597 Bug#950618</define-tag>
<define-tag packages>ppp</define-tag>
<define-tag isvulnerable>yes</define-tag>
<define-tag fixed>yes</define-tag>
<define-tag fixed-section>no</define-tag>

#use wml::debian::security

