<define-tag pagetitle>DLA-2168-1 libplist</define-tag>
<define-tag report_date>2020-04-02</define-tag>
<define-tag secrefs>CVE-2017-5209 CVE-2017-5545 CVE-2017-5834 CVE-2017-5835 CVE-2017-6435 CVE-2017-6436 CVE-2017-6439 CVE-2017-7982 Bug#851196 Bug#852385 Bug#854000 Bug#860945</define-tag>
<define-tag packages>libplist</define-tag>
<define-tag isvulnerable>yes</define-tag>
<define-tag fixed>yes</define-tag>
<define-tag fixed-section>no</define-tag>

#use wml::debian::security

