<define-tag pagetitle>DSA-5293-1 chromium</define-tag>
<define-tag report_date>2022-12-03</define-tag>
<define-tag secrefs>CVE-2022-4174 CVE-2022-4175 CVE-2022-4176 CVE-2022-4177 CVE-2022-4178 CVE-2022-4179 CVE-2022-4180 CVE-2022-4181 CVE-2022-4182 CVE-2022-4183 CVE-2022-4184 CVE-2022-4185 CVE-2022-4186 CVE-2022-4187 CVE-2022-4188 CVE-2022-4189 CVE-2022-4190 CVE-2022-4191 CVE-2022-4192 CVE-2022-4193 CVE-2022-4194 CVE-2022-4195</define-tag>
<define-tag packages>chromium</define-tag>
<define-tag isvulnerable>yes</define-tag>
<define-tag fixed>yes</define-tag>
<define-tag fixed-section>no</define-tag>

#use wml::debian::security



</dl>
