<define-tag pagetitle>DLA-1718-1 sqlalchemy</define-tag>
<define-tag report_date>2019-03-18</define-tag>
<define-tag secrefs>CVE-2019-7164 CVE-2019-7548 Bug#922669</define-tag>
<define-tag packages>sqlalchemy</define-tag>
<define-tag isvulnerable>yes</define-tag>
<define-tag fixed>yes</define-tag>
<define-tag fixed-section>no</define-tag>

#use wml::debian::security

