<define-tag pagetitle>DLA-1753-1 proftpd-dfsg</define-tag>
<define-tag report_date>2019-4-9</define-tag>
<define-tag secrefs>not-available Bug#923926</define-tag>
<define-tag packages>proftpd-dfsg</define-tag>
<define-tag isvulnerable>yes</define-tag>
<define-tag fixed>yes</define-tag>
<define-tag fixed-section>no</define-tag>

#use wml::debian::security

