<define-tag pagetitle>DLA-498-1 ruby-activemodel-3.2</define-tag>
<define-tag report_date>2016-5-31</define-tag>
<define-tag secrefs>CVE-2016-0753</define-tag>
<define-tag packages>ruby-activemodel-3.2</define-tag>
<define-tag isvulnerable>yes</define-tag>
<define-tag fixed>yes</define-tag>
<define-tag fixed-section>no</define-tag>

#use wml::debian::security

