<define-tag pagetitle>DLA-475-1 python-tornado</define-tag>
<define-tag report_date>2016-5-15</define-tag>
<define-tag secrefs>CVE-2014-9720</define-tag>
<define-tag packages>python-tornado</define-tag>
<define-tag isvulnerable>yes</define-tag>
<define-tag fixed>yes</define-tag>
<define-tag fixed-section>no</define-tag>

#use wml::debian::security

