<define-tag pagetitle>DLA-645-1 bind9</define-tag>
<define-tag report_date>2016-10-5</define-tag>
<define-tag secrefs>CVE-2016-2775 CVE-2016-2776 Bug#831796 Bug#839010</define-tag>
<define-tag packages>bind9</define-tag>
<define-tag isvulnerable>yes</define-tag>
<define-tag fixed>yes</define-tag>
<define-tag fixed-section>no</define-tag>

#use wml::debian::security

